aggregate/WR/firmware/NEM_DEVB/.Xil/Vivado-7788-DESKTOP-PTU6AJN/hw_ila_data_1/zip_work/waveform.vcd
$date
        2025-Sep-29 21:35:35
$end
$version
        Vivado v2024.1 (64-bit)
$end
$timescale
        1ps
$end
$scope module dut $end
$var reg 1 " u_MD10_top/gmii_tx_en $end
$var reg 8 # u_MD10_top/gmii_rxd [7:0] $end
$var reg 8 + u_MD10_top/gmii_txd [7:0] $end
$var reg 8 3 u_MD10_top/m_rx_axis_tdata_1 [7:0] $end
$var reg 1 ; u_MD10_top/gmii_rx_dv $end
$var reg 1 < u_MD10_top/gmii_rx_er $end
$var reg 1 = u_MD10_top/gmii_tx_er $end
$var reg 1 > u_MD10_top/<const0>_1 $end
$var reg 1 ? u_MD10_top/<const0>_2 $end
$var reg 1 @ u_MD10_top/<const0>_3 $end
$var reg 1 A u_MD10_top/<const0>_4 $end
$var reg 1 B u_MD10_top/<const0>_5 $end
$var reg 1 C u_MD10_top/<const0>_6 $end
$var reg 1 D u_MD10_top/<const0> $end
$var reg 1 E u_MD10_top/rx_axis_tvalid $end
$var reg 32 F u_MD10_top/my_ip_addr [31:0] $end
$var reg 8 f u_MD10_top/rx_axis_tdata [7:0] $end
$var reg 32 n u_MD10_top/m_rx_axis_tdata [31:0] $end
$var reg 1 0" u_MD10_top/m_rx_axis_tvalid $end
$var reg 64 1" u_MD10_top/TCP001_RX_DATA [63:0] $end
$var reg 1 q" u_MD10_top/TCP001_RX_DATA_VALID $end
$var reg 1 r" u_MD10_top/rx_axis_tready $end
$var reg 1 s" u_MD10_top/p_0_in $end
$var reg 1 t" u_MD10_top/s_axis_tready $end
$var reg 1 u" u_MD10_top/m_rx_axis_tready $end
$var reg 1 v" _TRIGGER $end
$var reg 1 w" _WINDOW $end
$var reg 1 x" _GAP $end
$upscope $end
$enddefinitions $end
#0
$dumpvars
0"
b1 #
b0 +
b10001011 3
0;
0<
0=
0>
0?
0@
0A
0B
0C
0D
0E
b11000000101010000000101000010100 F
b10001011 f
b10001011 n
00"
b0 1"
0q"
1r"
0s"
1t"
1u"
0v"
1w"
0x"
$end
#512
1"
b1010101 +
1v"
#515
1E
b1010101 f
#517
b1010101 3
b1010101 n
10"
0r"
#518
00"
1r"
#519
b11010101 +
10"
0r"
#520
b100010 +
00"
1r"
#521
b110011 +
10"
0r"
#522
b110001 +
00"
1r"
#523
b1101 +
10"
0r"
#524
b1011111 +
00"
1r"
#525
b11101100 +
10"
0r"
#526
b1110000 +
00"
1r"
#527
b10110101 +
b11010101 f
10"
0r"
#528
b11101000 +
00"
1r"
#529
b101100 +
b100010 f
10"
0r"
#530
b1101111 +
00"
1r"
#531
b11000110 +
b11010101 3
b110011 f
b11010101 n
10"
0r"
#532
b1000 +
00"
1r"
#533
b0 +
b100010 3
b110001 f
b100010 n
10"
0r"
#534
b1000101 +
00"
1r"
#535
b0 +
b110011 3
b1101 f
b110011 n
10"
0r"
#536
00"
1r"
#537
b110100 +
b110001 3
b1011111 f
b110001 n
10"
0r"
#538
b0 #
b10101111 +
1;
00"
1r"
#539
b1101011 +
b1101 3
b11101100 f
b1101 n
10"
0r"
#540
b1000000 +
00"
1r"
#541
b0 +
b1011111 3
b1110000 f
b1011111 n
10"
0r"
#542
b10000000 +
00"
1r"
#543
b110 +
b11101100 3
b10110101 f
b11101100 n
10"
0r"
#544
b100010 #
b10110101 +
00"
1r"
#545
b110011 #
b11101000 +
b1110000 3
b11101000 f
b1110000 n
10"
0r"
#546
b110001 #
b11000000 +
00"
1r"
#547
b1101 #
b10101000 +
b10110101 3
b101100 f
b10110101 n
10"
0r"
#548
b1011111 #
b1010 +
00"
1r"
#549
b11101100 #
b1011 +
b11101000 3
b1101111 f
b11101000 n
10"
0r"
#550
b1000 #
b11000000 +
00"
1r"
#551
b110 #
b10101000 +
b101100 3
b11000110 f
b101100 n
10"
0r"
#552
b0 #
b1010 +
00"
1r"
#553
b1 #
b10100 +
b1101111 3
b1000 f
b1101111 n
10"
0r"
#554
b1000 #
b11001010 +
00"
1r"
#555
b0 #
b10111110 +
b11000110 3
b0 f
b11000110 n
10"
0r"
#556
b110 #
b10010 +
00"
1r"
#557
b100 #
b110100 +
b1000 3
b1000101 f
b1000 n
10"
0r"
#558
b0 #
b11000101 +
00"
1r"
#559
b10 #
b10011010 +
b0 3
b0 f
b0 n
10"
0r"
#560
b100010 #
b10000110 +
00"
1r"
#561
b110011 #
b11000010 +
b1000101 3
b1000101 n
10"
0r"
#562
b110001 #
b0 +
00"
1r"
#563
b1101 #
b0 3
b110100 f
b0 n
10"
0r"
#564
b1011111 #
00"
1r"
#565
b11101100 #
b10101111 f
10"
0r"
#566
b11000000 #
b10000000 +
00"
1r"
#567
b10101000 #
b10 +
b110100 3
b1101011 f
b110100 n
10"
0r"
#568
b1010 #
b11111010 +
00"
1r"
#569
b10100 #
b11110000 +
b10101111 3
b1000000 f
b10101111 n
10"
0r"
#570
b0 #
b10110101 +
00"
1r"
#571
b1011111 +
b1101011 3
b0 f
b1101011 n
10"
0r"
#572
b0 +
00"
1r"
#573
b1000000 3
b10000000 f
b1000000 n
10"
0r"
#574
b10 +
00"
1r"
#575
b100 +
b0 3
b110 f
b0 n
10"
0r"
#576
b101 +
00"
1r"
#577
b10110100 +
b10000000 3
b10110101 f
b10000000 n
10"
0r"
#578
b1 +
00"
1r"
#579
b11 +
b110 3
b11101000 f
b110 n
10"
0r"
#580
00"
1r"
#581
b1000 +
b10110101 3
b11000000 f
b10110101 n
10"
0r"
#582
b1 +
00"
1r"
#583
b11101000 3
b10101000 f
b11101000 n
10"
0r"
#584
b100 +
00"
1r"
#585
b10 +
b11000000 3
b1010 f
b11000000 n
10"
0r"
#586
b100010 #
b101 +
00"
1r"
#587
b110011 #
b10101111 +
b10101000 3
b1011 f
b10101000 n
10"
0r"
#588
b110001 #
b11110111 +
00"
1r"
#589
b1101 #
b11000001 +
b1010 3
b11000000 f
b1010 n
10"
0r"
#590
0"
b1011111 #
b0 +
00"
1r"
#591
b11101100 #
b1011 3
b10101000 f
b1011 n
10"
0r"
#592
b1000 #
00"
1r"
#593
b110 #
b11000000 3
b1010 f
b11000000 n
10"
0r"
#594
b0 #
00"
1r"
#595
b1 #
b10101000 3
b10100 f
b10101000 n
10"
0r"
#596
b1000 #
00"
1r"
#597
b0 #
b1010 3
b11001010 f
b1010 n
10"
0r"
#598
b110 #
00"
1r"
#599
b100 #
b10100 3
b10111110 f
b10100 n
10"
0r"
#600
b0 #
00"
1r"
#601
b10 #
b11001010 3
b10010 f
b11001010 n
10"
0r"
#602
b100010 #
00"
1r"
#603
b110011 #
b10111110 3
b110100 f
b10111110 n
10"
0r"
#604
b110001 #
00"
1r"
#605
b1101 #
b10010 3
b11000101 f
b10010 n
10"
0r"
#606
b1011111 #
00"
1r"
#607
b11101100 #
b110100 3
b10011010 f
b110100 n
10"
0r"
#608
b11000000 #
00"
1r"
#609
b10101000 #
b11000101 3
b10000110 f
b11000101 n
10"
0r"
#610
b1010 #
00"
1r"
#611
b10100 #
b10011010 3
b11000010 f
b10011010 n
10"
0r"
#612
b0 #
00"
1r"
#613
b10000110 3
b0 f
b10000110 n
10"
0r"
#614
00"
1r"
#615
b11000010 3
b11000010 n
10"
0r"
#616
00"
1r"
#617
b0 3
b0 n
10"
0r"
#618
00"
1r"
#619
10"
0r"
#620
00"
1r"
#621
b10000000 f
10"
0r"
#622
00"
1r"
#623
b10 f
10"
0r"
#624
00"
1r"
#625
b10000000 3
b11111010 f
b10000000 n
10"
0r"
#626
00"
1r"
#627
b10 3
b11110000 f
b10 n
10"
0r"
#628
b100010 #
00"
1r"
#629
b110011 #
b11111010 3
b10110101 f
b11111010 n
10"
0r"
#630
b110001 #
00"
1r"
#631
b1101 #
b11110000 3
b1011111 f
b11110000 n
10"
0r"
#632
b1011111 #
00"
1r"
#633
b11101100 #
b10110101 3
b0 f
b10110101 n
10"
0r"
#634
b1000 #
00"
1r"
#635
b110 #
b1011111 3
b1011111 n
10"
0r"
#636
b0 #
00"
1r"
#637
b1 #
b0 3
b10 f
b0 n
10"
0r"
#638
b1000 #
00"
1r"
#639
b0 #
b100 f
10"
0r"
#640
b110 #
00"
1r"
#641
b100 #
b10 3
b101 f
b10 n
10"
0r"
#642
b0 #
00"
1r"
#643
b10 #
b100 3
b10110100 f
b100 n
10"
0r"
#644
b100010 #
00"
1r"
#645
b110011 #
b101 3
b1 f
b101 n
10"
0r"
#646
b110001 #
00"
1r"
#647
b1101 #
b10110100 3
b11 f
b10110100 n
10"
0r"
#648
b1011111 #
00"
1r"
#649
b11101100 #
b1 3
b1 n
10"
0r"
#650
b11000000 #
00"
1r"
#651
b10101000 #
b11 3
b1000 f
b11 n
10"
0r"
#652
b1010 #
00"
1r"
#653
b10100 #
b1 f
10"
0r"
#654
b0 #
00"
1r"
#655
b1000 3
b1000 n
10"
0r"
#656
00"
1r"
#657
b1 3
b100 f
b1 n
10"
0r"
#658
00"
1r"
#659
b10 f
10"
0r"
#660
00"
1r"
#661
b100 3
b101 f
b100 n
10"
0r"
#662
00"
1r"
#663
b10 3
b10101111 f
b10 n
10"
0r"
#664
00"
1r"
#665
b101 3
b11110111 f
b101 n
10"
0r"
#666
00"
1r"
#667
b10101111 3
b11000001 f
b10101111 n
10"
0r"
#668
00"
1r"
#669
b11110111 3
0E
b11110111 n
10"
0r"
#670
b100010 #
00"
1r"
#671
b110011 #
b11000001 3
b11000001 n
10"
#672
b110001 #
00"
#673
b1101 #
#674
b1011111 #
#675
b11101100 #
#676
b1000 #
#677
b110 #
#678
b0 #
#679
b1 #
#680
b1000 #
#681
b0 #
#682
b110 #
#683
b100 #
#684
b0 #
#685
b10 #
#686
b100010 #
#687
b110011 #
#688
b110001 #
#689
b1101 #
#690
b1011111 #
#691
b11101100 #
#692
b11000000 #
#693
b10101000 #
#694
b1010 #
#695
b10100 #
#696
b0 #
#712
b100010 #
#713
b110011 #
#714
b110001 #
#715
b1101 #
#716
b1011111 #
#717
b11101100 #
#718
b1000 #
#719
b110 #
#720
b0 #
#721
b1 #
#722
b1000 #
#723
b0 #
#724
b110 #
#725
b100 #
#726
b0 #
#727
b10 #
#728
b100010 #
#729
b110011 #
#730
b110001 #
#731
b1101 #
#732
b1011111 #
#733
b11101100 #
#734
b11000000 #
#735
b10101000 #
#736
b1010 #
#737
b10100 #
#738
b0 #
#754
b100010 #
#755
b110011 #
#756
b110001 #
#757
b1101 #
#758
b1011111 #
#759
b11101100 #
#760
b1000 #
#761
b110 #
#762
b0 #
#763
b1 #
#764
b1000 #
#765
b0 #
#766
b110 #
#767
b100 #
#768
b0 #
#769
b10 #
#770
b100010 #
#771
b110011 #
#772
b110001 #
#773
b1101 #
#774
b1011111 #
#775
b11101100 #
#776
b11000000 #
#777
b10101000 #
#778
b1010 #
#779
b10100 #
#780
b0 #
#796
b100010 #
#797
b110011 #
#798
b110001 #
#799
b1101 #
#800
b1011111 #
#801
b11101100 #
#802
b1000 #
#803
b110 #
#804
b0 #
#805
b1 #
#806
b1000 #
#807
b0 #
#808
b110 #
#809
b100 #
#810
b0 #
#811
b10 #
#812
b100010 #
#813
b110011 #
#814
b110001 #
#815
b1101 #
#816
b1011111 #
#817
b11101100 #
#818
b11000000 #
#819
b10101000 #
#820
b1010 #
#821
b10100 #
#822
b0 #
#838
b100010 #
#839
b110011 #
#840
b110001 #
#841
b1101 #
#842
b1011111 #
#843
b11101100 #
#844
b1000 #
#845
b110 #
#846
b0 #
#847
b1 #
#848
b1000 #
#849
b0 #
#850
b110 #
#851
b100 #
#852
b0 #
#853
b10 #
#854
b100010 #
#855
b110011 #
#856
b110001 #
#857
b1101 #
#858
b1011111 #
#859
b11101100 #
#860
b11000000 #
#861
b10101000 #
#862
b1010 #
#863
b10100 #
#864
b0 #
#880
b100010 #
#881
b110011 #
#882
b110001 #
#883
b1101 #
#884
b1011111 #
#885
b11101100 #
#886
b1000 #
#887
b110 #
#888
b0 #
#889
b1 #
#890
b1000 #
#891
b0 #
#892
b110 #
#893
b100 #
#894
b0 #
#895
b10 #
#896
b100010 #
#897
b110011 #
#898
b110001 #
#899
b1101 #
#900
b1011111 #
#901
b11101100 #
#902
b11000000 #
#903
b10101000 #
#904
b1010 #
#905
b10100 #
#906
b0 #
#922
b100010 #
#923
b110011 #
#924
b110001 #
#925
b1101 #
#926
b1011111 #
#927
b11101100 #
#928
b1000 #
#929
b110 #
#930
b0 #
#931
b1 #
#932
b1000 #
#933
b0 #
#934
b110 #
#935
b100 #
#936
b0 #
#937
b10 #
#938
b100010 #
#939
b110011 #
#940
b110001 #
#941
b1101 #
#942
b1011111 #
#943
b11101100 #
#944
b11000000 #
#945
b10101000 #
#946
b1010 #
#947
b10100 #
#948
b0 #
#964
b100010 #
#965
b110011 #
#966
b110001 #
#967
b1101 #
#968
b1011111 #
#969
b11101100 #
#970
b1000 #
#971
b110 #
#972
b0 #
#973
b1 #
#974
b1000 #
#975
b0 #
#976
b110 #
#977
b100 #
#978
b0 #
#979
b10 #
#980
b100010 #
#981
b110011 #
#982
b110001 #
#983
b1101 #
#984
b1011111 #
#985
b11101100 #
#986
b11000000 #
#987
b10101000 #
#988
b1010 #
#989
b10100 #
#990
b0 #
#1006
b100010 #
#1007
b110011 #
#1008
b110001 #
#1009
b1101 #
#1010
b1011111 #
#1011
b11101100 #
#1012
b1000 #
#1013
b110 #
#1014
b0 #
#1015
b1 #
#1016
b1000 #
#1017
b0 #
#1018
b110 #
#1019
b100 #
#1020
b0 #
#1021
b10 #
#1022
b100010 #
#1023
b110011 #
