testsystem/Trigger/firmware/reset/fanout_udppp/SiTCP_rfd/.Xil/Vivado-28840-LAPTOP-8T9G1ILJ/hw_ila_data_1/zip_work/waveform.vcd
$date
        2022-Oct-28 17:37:35
$end
$version
        Vivado v2022.1 (64-bit)
$end
$timescale
        1ps
$end
$scope module dut $end
$var reg 1 " \Calibration_table/genblk1[0].MultiEdge_DelayChain_Top/AsynBus_shakehand/d_req $end
$var reg 4 # \Calibration_table/genblk1[0].MultiEdge_DelayChain_Top/AsynBus_shakehand/Data_valid [3:0] $end
$var reg 18 ' \Calibration_table/genblk1[0].MultiEdge_DelayChain_Top/AsynBus_shakehand/din_valid [17:0] $end
$var reg 1 9 \Calibration_table/genblk1[0].MultiEdge_DelayChain_Top/AsynBus_shakehand/d_ask $end
$var reg 1 : \Calibration_table/genblk1[0].MultiEdge_DelayChain_Top/AsynBus_shakehand/dout_valid $end
$var reg 1 ; \Calibration_table/genblk1[0].MultiEdge_DelayChain_Top/AsynBus_shakehand/tdc_busy $end
$var reg 1 < \Calibration_table/genblk1[0].MultiEdge_DelayChain_Top/AsynBus_shakehand/tdc_busy_delay $end
$var reg 1 = _TRIGGER $end
$var reg 1 > _WINDOW $end
$var reg 1 ? _GAP $end
$upscope $end
$enddefinitions $end
#0
$dumpvars
0"
b0 #
b0 '
09
0:
0;
0<
0=
1>
0?
$end
#8191
b1111 #
#8192
b111111111111111111 '
1;
1=
#8193
1"
b0 #
b0 '
1<
#8194
b1111 #
#8196
b0 #
#8197
b1111 #
#8198
19
1:
#8199
0"
b0 #
#8200
b1111 #
0:
0;
#8201
1;
0<
#8202
b0 #
1<
#8203
b1111 #
0;
#8204
09
1;
0<
#8205
b0 #
1<
#8206
b1111 #
0;
#8207
1;
0<
#8208
b0 #
1<
#8209
b1111 #
0;
#8210
1;
0<
#8211
b0 #
1<
#8212
b1111 #
0;
#8213
1;
0<
#8214
b0 #
1<
#8215
b1111 #
0;
#8216
1;
0<
#8217
b0 #
1<
#8218
b1111 #
0;
#8219
1;
0<
#8220
b0 #
1<
#8221
b1111 #
0;
#8222
1;
0<
#8223
b0 #
1<
#8224
b1111 #
0;
#8225
1;
0<
#8226
b0 #
1<
#8227
b1111 #
0;
#8228
1;
0<
#8229
b0 #
1<
#8230
b1111 #
0;
#8231
1;
0<
#8232
b0 #
1<
#8233
b1111 #
0;
#8234
1;
0<
#8235
b0 #
1<
#8236
b1111 #
0;
#8237
1;
0<
#8238
b0 #
1<
#8239
b1111 #
0;
#8240
1;
0<
#8241
b0 #
1<
#8242
b1111 #
0;
#8243
1;
0<
#8244
b0 #
1<
#8245
b1111 #
0;
#8246
1;
0<
#8247
b0 #
1<
#8248
b1111 #
0;
#8249
1;
0<
#8250
b0 #
1<
#8251
b1111 #
0;
#8252
1;
0<
#8253
b0 #
1<
#8254
b1111 #
0;
#8255
1;
0<
#8256
b0 #
1<
#8257
b1111 #
0;
#8258
1;
0<
#8259
b0 #
1<
#8260
b1111 #
0;
#8261
1;
0<
#8262
b0 #
1<
#8263
b1111 #
0;
#8264
1;
0<
#8265
b0 #
1<
#8266
b1111 #
0;
#8267
1;
0<
#8268
b0 #
1<
#8269
b1111 #
0;
#8270
1;
0<
#8271
b0 #
1<
#8272
b1111 #
0;
#8273
1;
0<
#8274
b0 #
1<
#8275
b1111 #
0;
#8276
1;
0<
#8277
b0 #
1<
#8278
b1111 #
0;
#8279
1;
0<
#8280
b0 #
1<
#8281
b1111 #
0;
#8282
1;
0<
#8283
b0 #
1<
#8284
b1111 #
0;
#8285
1;
0<
#8286
b0 #
1<
#8287
b1111 #
0;
#8288
1;
0<
#8289
b0 #
1<
#8290
b1111 #
0;
#8291
1;
0<
#8292
b0 #
1<
#8293
b1111 #
0;
#8294
1;
0<
#8295
b0 #
1<
#8296
b1111 #
0;
#8297
1;
0<
#8298
b0 #
1<
#8299
b1111 #
0;
#8300
1;
0<
#8301
b0 #
1<
#8302
b1111 #
0;
#8303
1;
0<
#8304
b0 #
1<
#8305
b1111 #
0;
#8306
1;
0<
#8307
b0 #
1<
#8308
b1111 #
0;
#8309
1;
0<
#8310
b0 #
1<
#8311
b1111 #
0;
#8312
1;
0<
#8313
b0 #
1<
#8314
b1111 #
0;
#8315
1;
0<
#8316
b0 #
1<
#8317
b1111 #
0;
#8318
1;
0<
#8319
b0 #
1<
#8320
b1111 #
0;
#8321
1;
0<
#8322
b0 #
1<
#8323
b1111 #
0;
#8324
1;
0<
#8325
b0 #
1<
#8326
b1111 #
0;
#8327
1;
0<
#8328
b0 #
1<
#8329
b1111 #
0;
#8330
1;
0<
#8331
b0 #
1<
#8332
b1111 #
0;
#8333
1;
0<
#8334
b0 #
1<
#8335
b1111 #
0;
#8336
1;
0<
#8337
b0 #
1<
#8338
b1111 #
0;
#8339
1;
0<
#8340
b0 #
1<
#8341
b1111 #
0;
#8342
1;
0<
#8343
b0 #
1<
#8344
b1111 #
0;
#8345
1;
0<
#8346
b0 #
1<
#8347
b1111 #
0;
#8348
1;
0<
#8349
b0 #
1<
#8350
b1111 #
0;
#8351
1;
0<
#8352
b0 #
1<
#8353
b1111 #
0;
#8354
1;
0<
#8355
b0 #
1<
#8356
b1111 #
0;
#8357
1;
0<
#8358
b0 #
1<
#8359
b1111 #
0;
#8360
1;
0<
#8361
b0 #
1<
#8362
b1111 #
0;
#8363
1;
0<
#8364
b0 #
1<
#8365
b1111 #
0;
#8366
1;
0<
#8367
b0 #
1<
#8368
b1111 #
0;
#8369
1;
0<
#8370
b0 #
1<
#8371
b1111 #
0;
#8372
1;
0<
#8373
b0 #
1<
#8374
b1111 #
0;
#8375
1;
0<
#8376
b0 #
1<
#8377
b1111 #
0;
#8378
1;
0<
#8379
b0 #
1<
#8380
b1111 #
0;
#8381
1;
0<
#8382
b0 #
1<
#8383
b1111 #
0;
#8384
1;
0<
#8385
b0 #
1<
#8386
b1111 #
0;
#8387
1;
0<
#8388
b0 #
1<
#8389
b1111 #
0;
#8390
1;
0<
#8391
b0 #
1<
#8392
b1111 #
0;
#8393
1;
0<
#8394
b0 #
1<
#8395
b1111 #
0;
#8396
1;
0<
#8397
b0 #
1<
#8398
b1111 #
0;
#8399
1;
0<
#8400
b0 #
1<
#8401
b1111 #
0;
#8402
1;
0<
#8403
b0 #
1<
#8404
b1111 #
0;
#8405
1;
0<
#8406
b0 #
1<
#8407
b1111 #
0;
#8408
1;
0<
#8409
b0 #
1<
#8410
b1111 #
0;
#8411
1;
0<
#8412
b0 #
1<
#8413
b1111 #
0;
#8414
1;
0<
#8415
b0 #
1<
#8416
b1111 #
0;
#8417
1;
0<
#8418
b0 #
1<
#8419
b1111 #
0;
#8420
1;
0<
#8421
b0 #
1<
#8422
b1111 #
0;
#8423
1;
0<
#8424
b0 #
1<
#8425
b1111 #
0;
#8426
1;
0<
#8427
b0 #
1<
#8428
b1111 #
0;
#8429
1;
0<
#8430
b0 #
1<
#8431
b1111 #
0;
#8432
1;
0<
#8433
b0 #
1<
#8434
b1111 #
0;
#8435
1;
0<
#8436
b0 #
1<
#8437
b1111 #
0;
#8438
1;
0<
#8439
b0 #
1<
#8440
b1111 #
0;
#8441
1;
0<
#8442
b0 #
1<
#8443
b1111 #
0;
#8444
1;
0<
#8445
b0 #
1<
#8446
b1111 #
0;
#8447
1;
0<
#8448
b0 #
1<
#8449
b1111 #
0;
#8450
1;
0<
#8451
b0 #
1<
#8452
b1111 #
0;
#8453
1;
0<
#8454
b0 #
1<
#8455
b1111 #
0;
#8456
1;
0<
#8457
b0 #
1<
#8458
b1111 #
0;
#8459
1;
0<
#8460
b0 #
1<
#8461
b1111 #
0;
#8462
1;
0<
#8463
b0 #
1<
#8464
b1111 #
0;
#8465
1;
0<
#8466
b0 #
1<
#8467
b1111 #
0;
#8468
1;
0<
#8469
b0 #
1<
#8470
b1111 #
0;
#8471
1;
0<
#8472
b0 #
1<
#8473
b1111 #
0;
#8474
1;
0<
#8475
b0 #
1<
#8476
b1111 #
0;
#8477
1;
0<
#8478
b0 #
1<
#8479
b1111 #
0;
#8480
1;
0<
#8481
b0 #
1<
#8482
b1111 #
0;
#8483
1;
0<
#8484
b0 #
1<
#8485
b1111 #
0;
#8486
1;
0<
#8487
b0 #
1<
#8488
b1111 #
0;
#8489
1;
0<
#8490
b0 #
1<
#8491
b1111 #
0;
#8492
1;
0<
#8493
b0 #
1<
#8494
b1111 #
0;
#8495
1;
0<
#8496
b0 #
1<
#8497
b1111 #
0;
#8498
1;
0<
#8499
b0 #
1<
#8500
b1111 #
0;
#8501
1;
0<
#8502
b0 #
1<
#8503
b1111 #
0;
#8504
1;
0<
#8505
b0 #
1<
#8506
b1111 #
0;
#8507
1;
0<
#8508
b0 #
1<
#8509
b1111 #
0;
#8510
1;
0<
#8511
b0 #
1<
#8512
b1111 #
0;
#8513
1;
0<
#8514
b0 #
1<
#8515
b1111 #
0;
#8516
1;
0<
#8517
b0 #
1<
#8518
b1111 #
0;
#8519
1;
0<
#8520
b0 #
1<
#8521
b1111 #
0;
#8522
1;
0<
#8523
b0 #
1<
#8524
b1111 #
0;
#8525
1;
0<
#8526
b0 #
1<
#8527
b1111 #
0;
#8528
1;
0<
#8529
b0 #
1<
#8530
b1111 #
0;
#8531
1;
0<
#8532
b0 #
1<
#8533
b1111 #
0;
#8534
1;
0<
#8535
b0 #
1<
#8536
b1111 #
0;
#8537
1;
0<
#8538
b0 #
1<
#8539
b1111 #
0;
#8540
1;
0<
#8541
b0 #
1<
#8542
b1111 #
0;
#8543
1;
0<
#8544
b0 #
1<
#8545
b1111 #
0;
#8546
1;
0<
#8547
b0 #
1<
#8548
b1111 #
0;
#8549
1;
0<
#8550
b0 #
1<
#8551
b1111 #
0;
#8552
1;
0<
#8553
b0 #
1<
#8554
b1111 #
0;
#8555
1;
0<
#8556
b0 #
1<
#8557
b1111 #
0;
#8558
1;
0<
#8559
b0 #
1<
#8560
b1111 #
0;
#8561
1;
0<
#8562
b0 #
1<
#8563
b1111 #
0;
#8564
1;
0<
#8565
b0 #
1<
#8566
b1111 #
0;
#8567
1;
0<
#8568
b0 #
1<
#8569
b1111 #
0;
#8570
1;
0<
#8571
b0 #
1<
#8572
b1111 #
0;
#8573
1;
0<
#8574
b0 #
1<
#8575
b1111 #
0;
#8576
1;
0<
#8577
b0 #
1<
#8578
b1111 #
0;
#8579
1;
0<
#8580
b0 #
1<
#8581
b1111 #
0;
#8582
1;
0<
#8583
b0 #
1<
#8584
b1111 #
0;
#8585
1;
0<
#8586
b0 #
1<
#8587
b1111 #
0;
#8588
1;
0<
#8589
b0 #
1<
#8590
b1111 #
0;
#8591
1;
0<
#8592
b0 #
1<
#8593
b1111 #
0;
#8594
1;
0<
#8595
b0 #
1<
#8596
b1111 #
0;
#8597
1;
0<
#8598
b0 #
1<
#8599
b1111 #
0;
#8600
1;
0<
#8601
b0 #
1<
#8602
b1111 #
0;
#8603
1;
0<
#8604
b0 #
1<
#8605
b1111 #
0;
#8606
1;
0<
#8607
b0 #
1<
#8608
b1111 #
0;
#8609
1;
0<
#8610
b0 #
1<
#8611
b1111 #
0;
#8612
1;
0<
#8613
b0 #
1<
#8614
b1111 #
0;
#8615
1;
0<
#8616
b0 #
1<
#8617
b1111 #
0;
#8618
1;
0<
#8619
b0 #
1<
#8620
b1111 #
0;
#8621
1;
0<
#8622
b0 #
1<
#8623
b1111 #
0;
#8624
1;
0<
#8625
b0 #
1<
#8626
b1111 #
0;
#8627
1;
0<
#8628
b0 #
1<
#8629
b1111 #
0;
#8630
1;
0<
#8631
b0 #
1<
#8632
b1111 #
0;
#8633
1;
0<
#8634
b0 #
1<
#8635
b1111 #
0;
#8636
1;
0<
#8637
b0 #
1<
#8638
b1111 #
0;
#8639
1;
0<
#8640
b0 #
1<
#8641
b1111 #
0;
#8642
1;
0<
#8643
b0 #
1<
#8644
b1111 #
0;
#8645
1;
0<
#8646
b0 #
1<
#8647
b1111 #
0;
#8648
1;
0<
#8649
b0 #
1<
#8650
b1111 #
0;
#8651
1;
0<
#8652
b0 #
1<
#8653
b1111 #
0;
#8654
1;
0<
#8655
b0 #
1<
#8656
b1111 #
0;
#8657
1;
0<
#8658
b0 #
1<
#8659
b1111 #
0;
#8660
1;
0<
#8661
b0 #
1<
#8662
b1111 #
0;
#8663
1;
0<
#8664
b0 #
1<
#8665
b1111 #
0;
#8666
1;
0<
#8667
b0 #
1<
#8668
b1111 #
0;
#8669
1;
0<
#8670
b0 #
1<
#8671
b1111 #
0;
#8672
1;
0<
#8673
b0 #
1<
#8674
b1111 #
0;
#8675
1;
0<
#8676
b0 #
1<
#8677
b1111 #
0;
#8678
1;
0<
#8679
b0 #
1<
#8680
b1111 #
0;
#8681
1;
0<
#8682
b0 #
1<
#8683
b1111 #
0;
#8684
1;
0<
#8685
b0 #
1<
#8686
b1111 #
0;
#8687
1;
0<
#8688
b0 #
1<
#8689
b1111 #
0;
#8690
1;
0<
#8691
b0 #
1<
#8692
b1111 #
0;
#8693
1;
0<
#8694
b0 #
1<
#8695
b1111 #
0;
#8696
1;
0<
#8697
b0 #
1<
#8698
b1111 #
0;
#8699
1;
0<
#8700
b0 #
1<
#8701
b1111 #
0;
#8702
1;
0<
#8703
b0 #
1<
#8704
b1111 #
0;
#8705
1;
0<
#8706
b0 #
1<
#8707
b1111 #
0;
#8708
1;
0<
#8709
b0 #
1<
#8710
b1111 #
0;
#8711
1;
0<
#8712
b0 #
1<
#8713
b1111 #
0;
#8714
1;
0<
#8715
b0 #
1<
#8716
b1111 #
0;
#8717
1;
0<
#8718
b0 #
1<
#8719
b1111 #
0;
#8720
1;
0<
#8721
b0 #
1<
#8722
b1111 #
0;
#8723
1;
0<
#8724
b0 #
1<
#8725
b1111 #
0;
#8726
1;
0<
#8727
b0 #
1<
#8728
b1111 #
0;
#8729
1;
0<
#8730
b0 #
1<
#8731
b1111 #
0;
#8732
1;
0<
#8733
b0 #
1<
#8734
b1111 #
0;
#8735
1;
0<
#8736
b0 #
1<
#8737
b1111 #
0;
#8738
1;
0<
#8739
b0 #
1<
#8740
b1111 #
0;
#8741
1;
0<
#8742
b0 #
1<
#8743
b1111 #
0;
#8744
1;
0<
#8745
b0 #
1<
#8746
b1111 #
0;
#8747
1;
0<
#8748
b0 #
1<
#8749
b1111 #
0;
#8750
1;
0<
#8751
b0 #
1<
#8752
b1111 #
0;
#8753
1;
0<
#8754
b0 #
1<
#8755
b1111 #
0;
#8756
1;
0<
#8757
b0 #
1<
#8758
b1111 #
0;
#8759
1;
0<
#8760
b0 #
1<
#8761
b1111 #
0;
#8762
1;
0<
#8763
b0 #
1<
#8764
b1111 #
0;
#8765
1;
0<
#8766
b0 #
1<
#8767
b1111 #
0;
#8768
1;
0<
#8769
b0 #
1<
#8770
b1111 #
0;
#8771
1;
0<
#8772
b0 #
1<
#8773
b1111 #
0;
#8774
1;
0<
#8775
b0 #
1<
#8776
b1111 #
0;
#8777
1;
0<
#8778
b0 #
1<
#8779
b1111 #
0;
#8780
1;
0<
#8781
b0 #
1<
#8782
b1111 #
0;
#8783
1;
0<
#8784
b0 #
1<
#8785
b1111 #
0;
#8786
1;
0<
#8787
b0 #
1<
#8788
b1111 #
0;
#8789
1;
0<
#8790
b0 #
1<
#8791
b1111 #
0;
#8792
1;
0<
#8793
b0 #
1<
#8794
b1111 #
0;
#8795
1;
0<
#8796
b0 #
1<
#8797
b1111 #
0;
#8798
1;
0<
#8799
b0 #
1<
#8800
b1111 #
0;
#8801
1;
0<
#8802
b0 #
1<
#8803
b1111 #
0;
#8804
1;
0<
#8805
b0 #
1<
#8806
b1111 #
0;
#8807
1;
0<
#8808
b0 #
1<
#8809
b1111 #
0;
#8810
1;
0<
#8811
b0 #
1<
#8812
b1111 #
0;
#8813
1;
0<
#8814
b0 #
1<
#8815
b1111 #
0;
#8816
1;
0<
#8817
b0 #
1<
#8818
b1111 #
0;
#8819
1;
0<
#8820
b0 #
1<
#8821
b1111 #
0;
#8822
1;
0<
#8823
b0 #
1<
#8824
b1111 #
0;
#8825
1;
0<
#8826
b0 #
1<
#8827
b1111 #
0;
#8828
1;
0<
#8829
b0 #
1<
#8830
b1111 #
0;
#8831
1;
0<
#8832
b0 #
1<
#8833
b1111 #
0;
#8834
1;
0<
#8835
b0 #
1<
#8836
b1111 #
0;
#8837
1;
0<
#8838
b0 #
1<
#8839
b1111 #
0;
#8840
1;
0<
#8841
b0 #
1<
#8842
b1111 #
0;
#8843
1;
0<
#8844
b0 #
1<
#8845
b1111 #
0;
#8846
1;
0<
#8847
b0 #
1<
#8848
b1111 #
0;
#8849
1;
0<
#8850
b0 #
1<
#8851
b1111 #
0;
#8852
1;
0<
#8853
b0 #
1<
#8854
b1111 #
0;
#8855
1;
0<
#8856
b0 #
1<
#8857
b1111 #
0;
#8858
1;
0<
#8859
b0 #
1<
#8860
b1111 #
0;
#8861
1;
0<
#8862
b0 #
1<
#8863
b1111 #
0;
#8864
1;
0<
#8865
b0 #
1<
#8866
b1111 #
0;
#8867
1;
0<
#8868
b0 #
1<
#8869
b1111 #
0;
#8870
1;
0<
#8871
b0 #
1<
#8872
b1111 #
0;
#8873
1;
0<
#8874
b0 #
1<
#8875
b1111 #
0;
#8876
1;
0<
#8877
b0 #
1<
#8878
b1111 #
0;
#8879
1;
0<
#8880
b0 #
1<
#8881
b1111 #
0;
#8882
1;
0<
#8883
b0 #
1<
#8884
b1111 #
0;
#8885
1;
0<
#8886
b0 #
1<
#8887
b1111 #
0;
#8888
1;
0<
#8889
b0 #
1<
#8890
b1111 #
0;
#8891
1;
0<
#8892
b0 #
1<
#8893
b1111 #
0;
#8894
1;
0<
#8895
b0 #
1<
#8896
b1111 #
0;
#8897
1;
0<
#8898
b0 #
1<
#8899
b1111 #
0;
#8900
1;
0<
#8901
b0 #
1<
#8902
b1111 #
0;
#8903
1;
0<
#8904
b0 #
1<
#8905
b1111 #
0;
#8906
1;
0<
#8907
b0 #
1<
#8908
b1111 #
0;
#8909
1;
0<
#8910
b0 #
1<
#8911
b1111 #
0;
#8912
1;
0<
#8913
b0 #
1<
#8914
b1111 #
0;
#8915
1;
0<
#8916
b0 #
1<
#8917
b1111 #
0;
#8918
1;
0<
#8919
b0 #
1<
#8920
b1111 #
0;
#8921
1;
0<
#8922
b0 #
1<
#8923
b1111 #
0;
#8924
1;
0<
#8925
b0 #
1<
#8926
b1111 #
0;
#8927
1;
0<
#8928
b0 #
1<
#8929
b1111 #
0;
#8930
1;
0<
#8931
b0 #
1<
#8932
b1111 #
0;
#8933
1;
0<
#8934
b0 #
1<
#8935
b1111 #
0;
#8936
1;
0<
#8937
b0 #
1<
#8938
b1111 #
0;
#8939
1;
0<
#8940
b0 #
1<
#8941
b1111 #
0;
#8942
1;
0<
#8943
b0 #
1<
#8944
b1111 #
0;
#8945
1;
0<
#8946
b0 #
1<
#8947
b1111 #
0;
#8948
1;
0<
#8949
b0 #
1<
#8950
b1111 #
0;
#8951
1;
0<
#8952
b0 #
1<
#8953
b1111 #
0;
#8954
1;
0<
#8955
b0 #
1<
#8956
b1111 #
0;
#8957
1;
0<
#8958
b0 #
1<
#8959
b1111 #
0;
#8960
1;
0<
#8961
b0 #
1<
#8962
b1111 #
0;
#8963
1;
0<
#8964
b0 #
1<
#8965
b1111 #
0;
#8966
1;
0<
#8967
b0 #
1<
#8968
b1111 #
0;
#8969
1;
0<
#8970
b0 #
1<
#8971
b1111 #
0;
#8972
1;
0<
#8973
b0 #
1<
#8974
b1111 #
0;
#8975
1;
0<
#8976
b0 #
1<
#8977
b1111 #
0;
#8978
1;
0<
#8979
b0 #
1<
#8980
b1111 #
0;
#8981
1;
0<
#8982
b0 #
1<
#8983
b1111 #
0;
#8984
1;
0<
#8985
b0 #
1<
#8986
b1111 #
0;
#8987
1;
0<
#8988
b0 #
1<
#8989
b1111 #
0;
#8990
1;
0<
#8991
b0 #
1<
#8992
b1111 #
0;
#8993
1;
0<
#8994
b0 #
1<
#8995
b1111 #
0;
#8996
1;
0<
#8997
b0 #
1<
#8998
b1111 #
0;
#8999
1;
0<
#9000
b0 #
1<
#9001
b1111 #
0;
#9002
1;
0<
#9003
b0 #
1<
#9004
b1111 #
0;
#9005
1;
0<
#9006
b0 #
1<
#9007
b1111 #
0;
#9008
1;
0<
#9009
b0 #
1<
#9010
b1111 #
0;
#9011
1;
0<
#9012
b0 #
1<
#9013
b1111 #
0;
#9014
1;
0<
#9015
b0 #
1<
#9016
b1111 #
0;
#9017
1;
0<
#9018
b0 #
1<
#9019
b1111 #
0;
#9020
1;
0<
#9021
b0 #
1<
#9022
b1111 #
0;
#9023
1;
0<
#9024
b0 #
1<
#9025
b1111 #
0;
#9026
1;
0<
#9027
b0 #
1<
#9028
b1111 #
0;
#9029
1;
0<
#9030
b0 #
1<
#9031
b1111 #
0;
#9032
1;
0<
#9033
b0 #
1<
#9034
b1111 #
0;
#9035
1;
0<
#9036
b0 #
1<
#9037
b1111 #
0;
#9038
1;
0<
#9039
b0 #
1<
#9040
b1111 #
0;
#9041
1;
0<
#9042
b0 #
1<
#9043
b1111 #
0;
#9044
1;
0<
#9045
b0 #
1<
#9046
b1111 #
0;
#9047
1;
0<
#9048
b0 #
1<
#9049
b1111 #
0;
#9050
1;
0<
#9051
b0 #
1<
#9052
b1111 #
0;
#9053
1;
0<
#9054
b0 #
1<
#9055
b1111 #
0;
#9056
1;
0<
#9057
b0 #
1<
#9058
b1111 #
0;
#9059
1;
0<
#9060
b0 #
1<
#9061
b1111 #
0;
#9062
1;
0<
#9063
b0 #
1<
#9064
b1111 #
0;
#9065
1;
0<
#9066
b0 #
1<
#9067
b1111 #
0;
#9068
1;
0<
#9069
b0 #
1<
#9070
b1111 #
0;
#9071
1;
0<
#9072
b0 #
1<
#9073
b1111 #
0;
#9074
1;
0<
#9075
b0 #
1<
#9076
b1111 #
0;
#9077
1;
0<
#9078
b0 #
1<
#9079
b1111 #
0;
#9080
1;
0<
#9081
b0 #
1<
#9082
b1111 #
0;
#9083
1;
0<
#9084
b0 #
1<
#9085
b1111 #
0;
#9086
1;
0<
#9087
b0 #
1<
#9088
b1111 #
0;
#9089
1;
0<
#9090
b0 #
1<
#9091
b1111 #
0;
#9092
1;
0<
#9093
b0 #
1<
#9094
b1111 #
0;
#9095
1;
0<
#9096
b0 #
1<
#9097
b1111 #
0;
#9098
1;
0<
#9099
b0 #
1<
#9100
b1111 #
0;
#9101
1;
0<
#9102
b0 #
1<
#9103
b1111 #
0;
#9104
1;
0<
#9105
b0 #
1<
#9106
b1111 #
0;
#9107
1;
0<
#9108
b0 #
1<
#9109
b1111 #
0;
#9110
1;
0<
#9111
b0 #
1<
#9112
b1111 #
0;
#9113
1;
0<
#9114
b0 #
1<
#9115
b1111 #
0;
#9116
1;
0<
#9117
b0 #
1<
#9118
b1111 #
0;
#9119
1;
0<
#9120
b0 #
1<
#9121
b1111 #
0;
#9122
1;
0<
#9123
b0 #
1<
#9124
b1111 #
0;
#9125
1;
0<
#9126
b0 #
1<
#9127
b1111 #
0;
#9128
1;
0<
#9129
b0 #
1<
#9130
b1111 #
0;
#9131
1;
0<
#9132
b0 #
1<
#9133
b1111 #
0;
#9134
1;
0<
#9135
b0 #
1<
#9136
b1111 #
0;
#9137
1;
0<
#9138
b0 #
1<
#9139
b1111 #
0;
#9140
1;
0<
#9141
b0 #
1<
#9142
b1111 #
0;
#9143
1;
0<
#9144
b0 #
1<
#9145
b1111 #
0;
#9146
1;
0<
#9147
b0 #
1<
#9148
b1111 #
0;
#9149
1;
0<
#9150
b0 #
1<
#9151
b1111 #
0;
#9152
1;
0<
#9153
b0 #
1<
#9154
b1111 #
0;
#9155
1;
0<
#9156
b0 #
1<
#9157
b1111 #
0;
#9158
1;
0<
#9159
b0 #
1<
#9160
b1111 #
0;
#9161
1;
0<
#9162
b0 #
1<
#9163
b1111 #
0;
#9164
1;
0<
#9165
b0 #
1<
#9166
b1111 #
0;
#9167
1;
0<
#9168
b0 #
1<
#9169
b1111 #
0;
#9170
1;
0<
#9171
b0 #
1<
#9172
b1111 #
0;
#9173
1;
0<
#9174
b0 #
1<
#9175
b1111 #
0;
#9176
1;
0<
#9177
b0 #
1<
#9178
b1111 #
0;
#9179
1;
0<
#9180
b0 #
1<
#9181
b1111 #
0;
#9182
1;
0<
#9183
b0 #
1<
#9184
b1111 #
0;
#9185
1;
0<
#9186
b0 #
1<
#9187
b1111 #
0;
#9188
1;
0<
#9189
b0 #
1<
#9190
b1111 #
0;
#9191
1;
0<
#9192
b0 #
1<
#9193
b1111 #
0;
#9194
1;
0<
#9195
b0 #
1<
#9196
b1111 #
0;
#9197
1;
0<
#9198
b0 #
1<
#9199
b1111 #
0;
#9200
1;
0<
#9201
b0 #
1<
#9202
b1111 #
0;
#9203
1;
0<
#9204
b0 #
1<
#9205
b1111 #
0;
#9206
1;
0<
#9207
b0 #
1<
#9208
b1111 #
0;
#9209
1;
0<
#9210
b0 #
1<
#9211
b1111 #
0;
#9212
1;
0<
#9213
b0 #
1<
#9214
b1111 #
0;
#9215
1;
0<
#9216
b0 #
1<
#9217
b1111 #
0;
#9218
1;
0<
#9219
b0 #
1<
#9220
b1111 #
0;
#9221
1;
0<
#9222
b0 #
1<
#9223
b1111 #
0;
#9224
1;
0<
#9225
b0 #
1<
#9226
b1111 #
0;
#9227
1;
0<
#9228
b0 #
1<
#9229
b1111 #
0;
#9230
1;
0<
#9231
b0 #
1<
#9232
b1111 #
0;
#9233
1;
0<
#9234
b0 #
1<
#9235
b1111 #
0;
#9236
1;
0<
#9237
b0 #
1<
#9238
b1111 #
0;
#9239
1;
0<
#9240
b0 #
1<
#9241
b1111 #
0;
#9242
1;
0<
#9243
b0 #
1<
#9244
b1111 #
0;
#9245
1;
0<
#9246
b0 #
1<
#9247
b1111 #
0;
#9248
1;
0<
#9249
b0 #
1<
#9250
b1111 #
0;
#9251
1;
0<
#9252
b0 #
1<
#9253
b1111 #
0;
#9254
1;
0<
#9255
b0 #
1<
#9256
b1111 #
0;
#9257
1;
0<
#9258
b0 #
1<
#9259
b1111 #
0;
#9260
1;
0<
#9261
b0 #
1<
#9262
b1111 #
0;
#9263
1;
0<
#9264
b0 #
1<
#9265
b1111 #
0;
#9266
1;
0<
#9267
b0 #
1<
#9268
b1111 #
0;
#9269
1;
0<
#9270
b0 #
1<
#9271
b1111 #
0;
#9272
1;
0<
#9273
b0 #
1<
#9274
b1111 #
0;
#9275
1;
0<
#9276
b0 #
1<
#9277
b1111 #
0;
#9278
1;
0<
#9279
b0 #
1<
#9280
b1111 #
0;
#9281
1;
0<
#9282
b0 #
1<
#9283
b1111 #
0;
#9284
1;
0<
#9285
b0 #
1<
#9286
b1111 #
0;
#9287
1;
0<
#9288
b0 #
1<
#9289
b1111 #
0;
#9290
1;
0<
#9291
b0 #
1<
#9292
b1111 #
0;
#9293
1;
0<
#9294
b0 #
1<
#9295
b1111 #
0;
#9296
1;
0<
#9297
b0 #
1<
#9298
b1111 #
0;
#9299
1;
0<
#9300
b0 #
1<
#9301
b1111 #
0;
#9302
1;
0<
#9303
b0 #
1<
#9304
b1111 #
0;
#9305
1;
0<
#9306
b0 #
1<
#9307
b1111 #
0;
#9308
1;
0<
#9309
b0 #
1<
#9310
b1111 #
0;
#9311
1;
0<
#9312
b0 #
1<
#9313
b1111 #
0;
#9314
1;
0<
#9315
b0 #
1<
#9316
b1111 #
0;
#9317
1;
0<
#9318
b0 #
1<
#9319
b1111 #
0;
#9320
1;
0<
#9321
b0 #
1<
#9322
b1111 #
0;
#9323
1;
0<
#9324
b0 #
1<
#9325
b1111 #
0;
#9326
1;
0<
#9327
b0 #
1<
#9328
b1111 #
0;
#9329
1;
0<
#9330
b0 #
1<
#9331
b1111 #
0;
#9332
1;
0<
#9333
b0 #
1<
#9334
b1111 #
0;
#9335
1;
0<
#9336
b0 #
1<
#9337
b1111 #
0;
#9338
1;
0<
#9339
b0 #
1<
#9340
b1111 #
0;
#9341
1;
0<
#9342
b0 #
1<
#9343
b1111 #
0;
#9344
1;
0<
#9345
b0 #
1<
#9346
b1111 #
0;
#9347
1;
0<
#9348
b0 #
1<
#9349
b1111 #
0;
#9350
1;
0<
#9351
b0 #
1<
#9352
b1111 #
0;
#9353
1;
0<
#9354
b0 #
1<
#9355
b1111 #
0;
#9356
1;
0<
#9357
b0 #
1<
#9358
b1111 #
0;
#9359
1;
0<
#9360
b0 #
1<
#9361
b1111 #
0;
#9362
1;
0<
#9363
b0 #
1<
#9364
b1111 #
0;
#9365
1;
0<
#9366
b0 #
1<
#9367
b1111 #
0;
#9368
1;
0<
#9369
b0 #
1<
#9370
b1111 #
0;
#9371
1;
0<
#9372
b0 #
1<
#9373
b1111 #
0;
#9374
1;
0<
#9375
b0 #
1<
#9376
b1111 #
0;
#9377
1;
0<
#9378
b0 #
1<
#9379
b1111 #
0;
#9380
1;
0<
#9381
b0 #
1<
#9382
b1111 #
0;
#9383
1;
0<
#9384
b0 #
1<
#9385
b1111 #
0;
#9386
1;
0<
#9387
b0 #
1<
#9388
b1111 #
0;
#9389
1;
0<
#9390
b0 #
1<
#9391
b1111 #
0;
#9392
1;
0<
#9393
b0 #
1<
#9394
b1111 #
0;
#9395
1;
0<
#9396
b0 #
1<
#9397
b1111 #
0;
#9398
1;
0<
#9399
b0 #
1<
#9400
b1111 #
0;
#9401
1;
0<
#9402
b0 #
1<
#9403
b1111 #
0;
#9404
1;
0<
#9405
b0 #
1<
#9406
b1111 #
0;
#9407
1;
0<
#9408
b0 #
1<
#9409
b1111 #
0;
#9410
1;
0<
#9411
b0 #
1<
#9412
b1111 #
0;
#9413
1;
0<
#9414
b0 #
1<
#9415
b1111 #
0;
#9416
1;
0<
