testsystem/Trigger/firmware/reset/fanout_udppp/SiTCP_rfd/.Xil/Vivado-8896-LAPTOP-8T9G1ILJ/hw_ila_data_1/zip_work/waveform.vcd
$date
        2022-Oct-07 13:46:32
$end
$version
        Vivado v2022.1 (64-bit)
$end
$timescale
        1ps
$end
$scope module dut $end
$var reg 48 " \Calibration_table/genblk1[0].MultiEdge_DelayChain_Top/AsynBus_shakehand/dstore_1 [47:0] $end
$var reg 400 R \Calibration_table/genblk1[0].MultiEdge_DelayChain_Top/AsynBus_shakehand/dstore [447:48] $end
$var reg 1 j% \Calibration_table/genblk1[0].MultiEdge_DelayChain_Top/AsynBus_shakehand/dout_valid $end
$var reg 1 k% _TRIGGER $end
$var reg 1 l% _WINDOW $end
$var reg 1 m% _GAP $end
$upscope $end
$enddefinitions $end
#0
$dumpvars
b111111111111111111111111111111111111111111100000 "
b0 R
0j%
0k%
1l%
0m%
$end
#1
1j%
#4
0j%
#5
b111111111111111111111111111111111111111111111100 "
#6
b10111111111111111111111111111111111111100 "
#8
1j%
#11
0j%
#13
b11111111111111111111111111111111111 "
#16
1j%
#19
0j%
#20
b111111111111111111111111111111111 "
#23
1j%
#26
0j%
#27
b11111111111111111111111111111111 "
#30
1j%
#33
0j%
#35
b0 "
#38
1j%
#41
0j%
#45
1j%
#48
0j%
#52
1j%
#55
0j%
#59
1j%
#62
0j%
#67
1j%
#70
0j%
#74
1j%
#77
0j%
#81
1j%
#84
0j%
#88
1j%
#91
0j%
#95
1j%
#98
0j%
#103
1j%
#106
0j%
#110
1j%
#113
0j%
#117
1j%
#120
0j%
#124
1j%
#127
0j%
#131
1j%
#134
0j%
#139
1j%
#142
0j%
#146
1j%
#149
0j%
#153
1j%
#156
0j%
#160
1j%
#163
0j%
#167
1j%
#170
0j%
#172
b101000000000000000000000000000000000000000000000 "
#175
1j%
#178
0j%
#179
b111111111110000000000000000000000000000000000000 "
#182
1j%
#185
0j%
#186
b111111111111111111100000000000000000000000000000 "
#189
1j%
#192
0j%
#193
b111111111111111111111111101000000000000000000000 "
#196
1j%
#199
0j%
#200
b111111111111111111111111111111111111101000000000 "
#203
1j%
#206
0j%
#208
b1111111111111111111111111111111111111111000 "
#211
1j%
#214
0j%
#215
b111111111111111111111111111111111110 "
#218
1j%
#221
0j%
#222
b1111111111111111111111111111111111 "
#225
1j%
#228
0j%
#229
b11111111111111111111111111111111 "
#232
1j%
#235
0j%
#239
1j%
#242
0j%
#244
b0 "
#247
1j%
#250
0j%
#254
1j%
#257
0j%
#262
1j%
#265
0j%
#269
1j%
#272
0j%
#276
1j%
#279
0j%
#283
1j%
#286
0j%
#290
1j%
#293
0j%
#298
1j%
#301
0j%
#305
1j%
#308
0j%
#312
1j%
#315
0j%
#319
1j%
#322
0j%
#326
1j%
#329
0j%
#334
1j%
#337
0j%
#341
1j%
#344
0j%
#348
1j%
#351
0j%
#355
1j%
#358
0j%
#362
1j%
#365
0j%
#370
1j%
#373
0j%
#377
1j%
#380
0j%
#381
b101000000000000000000000000000000000000000000000 "
#384
1j%
#387
0j%
#388
b111111111111100000000000000000000000000000000000 "
#391
1j%
#394
0j%
#395
b111111111111111111111110000000000000000000000000 "
#398
1j%
#401
0j%
#403
b111111111111111111111111111111100000000000000000 "
#406
1j%
#409
0j%
#410
b111111111111111111111111111111111111111110000000 "
#413
1j%
#416
0j%
#417
b11111111111111111111111111111111111111100 "
#420
1j%
#423
0j%
#424
b11111111111111111111111111111111111 "
#427
1j%
#430
0j%
#432
b111111111111111111111111111111111 "
#434
1j%
#437
0j%
#439
b11111111111111111111111111111111 "
#442
1j%
#445
0j%
#446
b1111101111110111011110011111111 "
#447
b0 "
#449
1j%
#452
0j%
#457
1j%
#460
0j%
#464
1j%
#467
0j%
#471
1j%
#474
0j%
#478
1j%
#481
0j%
#485
1j%
#488
0j%
#493
1j%
#496
0j%
#500
1j%
#503
0j%
#507
1j%
#510
0j%
#512
1k%
#514
1j%
#517
0j%
#521
1j%
#524
0j%
#529
1j%
#532
0j%
#536
1j%
#539
0j%
#543
1j%
#546
0j%
#550
1j%
#553
0j%
#557
1j%
#560
0j%
#565
1j%
#568
0j%
#572
1j%
#575
0j%
#579
1j%
#582
0j%
#583
b100000000000000000000000000000000000000000000000 "
#586
1j%
#589
0j%
#590
b111111111110000000000000000000000000000000000000 "
#593
1j%
#596
0j%
#598
b111111111111111111111000000000000000000000000000 "
#601
1j%
#604
0j%
#605
b111111111111111111111111101000000000000000000000 "
#608
1j%
#611
0j%
#612
b111111111111111111111111111111111111101000000000 "
#615
1j%
#618
0j%
#619
b10111111111111111111111111111111111111111110000 "
#622
1j%
#625
0j%
#626
b10111101111111111111111111111111111111111111110 "
#627
b11111111111111111111111111111111110 "
#629
1j%
#632
0j%
#634
b1111111111111111111111111111111111 "
#637
1j%
#640
0j%
#641
b11111111111111111111111111111111 "
#644
1j%
#647
0j%
#651
1j%
#654
0j%
#656
b0 "
#659
1j%
#662
0j%
#666
1j%
#669
0j%
#673
1j%
#676
0j%
#680
1j%
#683
0j%
#688
1j%
#691
0j%
#695
1j%
#698
0j%
#702
1j%
#705
0j%
#709
1j%
#712
0j%
#716
1j%
#719
0j%
#724
1j%
#727
0j%
#731
1j%
#734
0j%
#738
1j%
#741
0j%
#745
1j%
#748
0j%
#752
1j%
#755
0j%
#760
1j%
#763
0j%
#767
1j%
#770
0j%
#774
1j%
#777
0j%
#781
1j%
#784
0j%
#785
b100000000000000000000000000000000000000000000000 "
#788
1j%
#791
0j%
#793
b111111111010000000000000000000000000000000000000 "
#796
1j%
#799
0j%
#800
b111111111111111110100000000000000000000000000000 "
#803
1j%
#806
0j%
#807
b111111111111111111111111101000000000000000000000 "
#810
1j%
#813
0j%
#814
b111111111111111111111111111111111111100000000000 "
#817
1j%
#820
0j%
#821
b111111111111111111111111111111111111111111110000 "
#822
b11111111111111111111111111111111111111111110000 "
#824
1j%
#827
0j%
#829
b1111111111111111111111111111111111110 "
#832
1j%
#835
0j%
#836
b11111111111111111111111111111111111 "
#839
1j%
#842
0j%
#843
b11111111111111111111111111111111 "
#846
1j%
#849
0j%
#853
1j%
#856
0j%
#858
b0 "
#861
1j%
#864
0j%
#868
1j%
#871
0j%
#875
1j%
#878
0j%
#883
1j%
#886
0j%
#890
1j%
#893
0j%
#897
1j%
#900
0j%
#904
1j%
#907
0j%
#911
1j%
#914
0j%
#919
1j%
#922
0j%
#926
1j%
#929
0j%
#933
1j%
#936
0j%
#940
1j%
#943
0j%
#947
1j%
#950
0j%
#955
1j%
#958
0j%
#962
1j%
#965
0j%
#969
1j%
#972
0j%
#976
1j%
#979
0j%
#983
1j%
#986
0j%
#991
1j%
#994
0j%
#995
b111111100000000000000000000000000000000000000000 "
#998
1j%
#1001
0j%
#1002
b111111111111111010000000000000000000000000000000 "
#1005
1j%
#1008
0j%
#1009
b111111111111111111111110000000000000000000000000 "
#1012
1j%
#1015
0j%
#1016
b111111111111111111111111111111101000000000000000 "
#1019
1j%
#1022
0j%
