testsystem/Trigger/firmware/reset/fanout_udppp/SiTCP_rfd/.Xil/Vivado-65372-LAPTOP-8T9G1ILJ/hw_ila_data_2/zip_work/waveform.vcd
$date
        2022-Oct-06 16:41:03
$end
$version
        Vivado v2022.1 (64-bit)
$end
$timescale
        1ps
$end
$scope module dut $end
$var reg 96 " \Calibration_table/genblk1[1].MultiEdge_DelayChain_Top/AsynBus_shakehand/shakehand_in [95:0] $end
$var reg 18 $" \Calibration_table/genblk1[1].MultiEdge_DelayChain_Top/AsynBus_shakehand/din_valid [17:0] $end
$var reg 1 6" _TRIGGER $end
$var reg 1 7" _WINDOW $end
$var reg 1 8" _GAP $end
$upscope $end
$enddefinitions $end
#0
$dumpvars
b111111111111111111111111111111110000000000000000000000000000000011111111111111111111111111111111 "
b0 $"
06"
17"
08"
$end
#1
b0 "
#3
b111111111111111111111111111111110000000000000000000000000000000011111111111111111111111111111111 "
#4
b0 "
#6
b111111111111111111111111111111110000000000000000000000000000000011111111111111111111111111111111 "
#10
b0 "
b111111111111111111 $"
#11
b0 $"
#12
b111111111111111111111111111111110000000000000000000000000000000011111111111111111111111111111111 "
#13
b0 "
#15
b111111111111111111111111111111110000000000000000000000000000000011111111111111111111111111111111 "
#16
b0 "
#18
b111111111111111111111111111111110000000000000000000000000000000011111111111111111111111111111111 "
#22
b0 "
b111111111111111111 $"
#23
b0 $"
#24
b111111111111111111111111111111110000000000000000000000000000000011111111111111111111111111111111 "
#25
b0 "
#27
b111111111111111111111111111111110000000000000000000000000000000011111111111111111111111111111111 "
#28
b0 "
#30
b111111111111111111111111111111110000000000000000000000000000000011111111111111111111111111111111 "
#34
b0 "
b111111111111111111 $"
#35
b0 $"
#36
b111111111111111111111111111111110000000000000000000000000000000011111111111111111111111111111111 "
#37
b0 "
#39
b111111111111111111111111111111110000000000000000000000000000000011111111111111111111111111111111 "
#40
b0 "
#42
b111111111111111111111111111111110000000000000000000000000000000011111111111111111111111111111111 "
#46
b0 "
b111111111111111111 $"
#47
b0 $"
#48
b111111111111111111111111111111110000000000000000000000000000000011111111111111111111111111111111 "
#49
b0 "
#51
b111111111111111111111111111111110000000000000000000000000000000011111111111111111111111111111111 "
#52
b0 "
#54
b111111111111111111111111111111110000000000000000000000000000000011111111111111111111111111111111 "
#58
b0 "
b111111111111111111 $"
#59
b0 $"
#60
b111111111111111111111111111111110000000000000000000000000000000011111111111111111111111111111111 "
#61
b0 "
#63
b111111111111111111111111111111110000000000000000000000000000000011111111111111111111111111111111 "
#64
b0 "
#66
b111111111111111111111111111111110000000000000000000000000000000011111111111111111111111111111111 "
#70
b0 "
b111111111111111111 $"
#71
b0 $"
#72
b111111111111111111111111111111110000000000000000000000000000000011111111111111111111111111111111 "
#73
b0 "
#75
b111111111111111111111111111111110000000000000000000000000000000011111111111111111111111111111111 "
#76
b0 "
#78
b111111111111111111111111111111110000000000000000000000000000000011111111111111111111111111111111 "
#82
b0 "
b111111111111111111 $"
#83
b0 $"
#84
b111111111111111111111111111111110000000000000000000000000000000011111111111111111111111111111111 "
#85
b0 "
#87
b111111111111111111111111111111110000000000000000000000000000000011111111111111111111111111111111 "
#88
b0 "
#90
b111111111111111111111111111111110000000000000000000000000000000011111111111111111111111111111111 "
#94
b0 "
b111111111111111111 $"
#95
b0 $"
#96
b111111111111111111111111111111110000000000000000000000000000000011111111111111111111111111111111 "
#97
b0 "
#99
b111111111111111111111111111111110000000000000000000000000000000011111111111111111111111111111111 "
#100
b0 "
#102
b111111111111111111111111111111110000000000000000000000000000000011111111111111111111111111111111 "
#106
b0 "
b111111111111111111 $"
#107
b0 $"
#108
b111111111111111111111111111111110000000000000000000000000000000011111111111111111111111111111111 "
#109
b0 "
#111
b111111111111111111111111111111110000000000000000000000000000000011111111111111111111111111111111 "
#112
b0 "
#114
b111111111111111111111111111111110000000000000000000000000000000011111111111111111111111111111111 "
#118
b0 "
b111111111111111111 $"
#119
b0 $"
#120
b111111111111111111111111111111110000000000000000000000000000000011111111111111111111111111111111 "
#121
b0 "
#123
b111111111111111111111111111111110000000000000000000000000000000011111111111111111111111111111111 "
#124
b0 "
#126
b111111111111111111111111111111110000000000000000000000000000000011111111111111111111111111111111 "
#130
b0 "
b111111111111111111 $"
#131
b0 $"
#132
b111111111111111111111111111111110000000000000000000000000000000011111111111111111111111111111111 "
#133
b0 "
#135
b111111111111111111111111111111110000000000000000000000000000000011111111111111111111111111111111 "
#136
b0 "
#138
b111111111111111111111111111111110000000000000000000000000000000011111111111111111111111111111111 "
#142
b0 "
b111111111111111111 $"
#143
b0 $"
#144
b111111111111111111111111111111110000000000000000000000000000000011111111111111111111111111111111 "
#145
b0 "
#147
b111111111111111111111111111111110000000000000000000000000000000011111111111111111111111111111111 "
#148
b0 "
#150
b111111111111111111111111111111110000000000000000000000000000000011111111111111111111111111111111 "
#154
b111111110000000000000000000000000000000000000000000000000000000000000000000000000000000000000000 "
b111111111111111111 $"
#155
b0 "
b0 $"
#156
b111111111111111111111111111111110000000000000000000000000000000011111111111111111111111111111111 "
#157
b0 "
#159
b111111111111111111111111111111110000000000000000000000000000000011111111111111111111111111111111 "
#160
b0 "
#162
b111111111111111111111111111111110000000000000000000000000000000011111111111111111111111111111111 "
#166
b111111111111111110100000000000000000000000000000000000000000000000000000000000000000000000000000 "
b111111111111111111 $"
#167
b0 "
b0 $"
#168
b111111111111111111111111111111110000000000000000000000000000000011111111111111111111111111111111 "
#169
b0 "
#171
b111111111111111111111111111111110000000000000000000000000000000011111111111111111111111111111111 "
#172
b0 "
#174
b111111111111111111111111111111110000000000000000000000000000000011111111111111111111111111111111 "
#178
b111111111111111111111111111000000000000000000000000000000000000000000000000000000000000000000000 "
#179
b0 "
b111111111111111111 $"
#180
b111111111111111111111111111111110000000000000000000000000000000011111111111111111111111111111111 "
b0 $"
#181
b0 "
#183
b111111111111111111111111111111110000000000000000000000000000000011111111111111111111111111111111 "
#184
b0 "
#186
b111111111111111111111111111111110000000000000000000000000000000011111111111111111111111111111111 "
#190
b111111111111111111111111111111111110000000000000000000000000000000000000000000000000000000000000 "
#191
b0 "
b111111111111111111 $"
#192
b111111111111111111111111111111110000000000000000000000000000000011111111111111111111111111111111 "
b0 $"
#193
b0 "
#195
b111111111111111111111111111111110000000000000000000000000000000011111111111111111111111111111111 "
#196
b0 "
#198
b111111111111111111111111111111110000000000000000000000000000000011111111111111111111111111111111 "
#202
b111111111111111111111111111111111111111111111000000000000000000000000000000000000000000000000000 "
#203
b0 "
b111111111111111111 $"
#204
b111111111111111111111111111111110000000000000000000000000000000011111111111111111111111111111111 "
b0 $"
#205
b0 "
#207
b111111111111111111111111111111110000000000000000000000000000000011111111111111111111111111111111 "
#208
b0 "
#210
b111111111111111111111111111111110000000000000000000000000000000011111111111111111111111111111111 "
#214
b1111111111111111111111111111111111111111111110000000000000000000000000000000000000000000 "
b111111111111111111 $"
#215
b0 "
b0 $"
#216
b111111111111111111111111111111110000000000000000000000000000000011111111111111111111111111111111 "
#217
b0 "
#219
b111111111111111111111111111111110000000000000000000000000000000011111111111111111111111111111111 "
#220
b0 "
#222
b111111111111111111111111111111110000000000000000000000000000000011111111111111111111111111111111 "
#226
b101111111111111111111111111111111111111111111101000000000000000000000000000000000 "
b111111111111111111 $"
#227
b0 "
b0 $"
#228
b111111111111111111111111111111110000000000000000000000000000000011111111111111111111111111111111 "
#229
b0 "
#231
b111111111111111111111111111111110000000000000000000000000000000011111111111111111111111111111111 "
#232
b0 "
#234
b111111111111111111111111111111110000000000000000000000000000000011111111111111111111111111111111 "
#238
b1000111111111111111111111111111111111111111111110000000000000000000000000 "
b111111111111111111 $"
#239
b0 "
b0 $"
#240
b111111111111111111111111111111110000000000000000000000000000000011111111111111111111111111111111 "
#241
b0 "
#243
b111111111111111111111111111111110000000000000000000000000000000011111111111111111111111111111111 "
#244
b0 "
#246
b111111111111111111111111111111110000000000000000000000000000000011111111111111111111111111111111 "
#250
b1111111111111111111111111111111111111111111111000000000000000 "
b111111111111111111 $"
#251
b0 "
b0 $"
#252
b111111111111111111111111111111110000000000000000000000000000000011111111111111111111111111111111 "
#253
b0 "
#255
b111111111111111111111111111111110000000000000000000000000000000011111111111111111111111111111111 "
#256
b0 "
#258
b111111111111111111111111111111110000000000000000000000000000000011111111111111111111111111111111 "
#262
b111111111111111111111111111111111111111111111110000 "
b111111111111111111 $"
#263
b0 "
b0 $"
#264
b111111111111111111111111111111110000000000000000000000000000000011111111111111111111111111111111 "
#265
b0 "
#267
b111111111111111111111111111111110000000000000000000000000000000011111111111111111111111111111111 "
#268
b0 "
#270
b111111111111111111111111111111110000000000000000000000000000000011111111111111111111111111111111 "
#274
b111111110000000000000000000000000000000000000000000001111111111111111111111111111111111111111100 "
b111111111111111111 $"
#275
b0 "
b0 $"
#276
b111111111111111111111111111111110000000000000000000000000000000011111111111111111111111111111111 "
#277
b0 "
#279
b111111111111111111111111111111110000000000000000000000000000000011111111111111111111111111111111 "
#280
b0 "
#282
b111111111111111111111111111111110000000000000000000000000000000011111111111111111111111111111111 "
#286
b111111111111111110000000000000000000000000000000000000000000011111111111111111111111111111111111 "
#287
b0 "
b111111111111111111 $"
#288
b111111111111111111111111111111110000000000000000000000000000000011111111111111111111111111111111 "
b0 $"
#289
b0 "
#291
b111111111111111111111111111111110000000000000000000000000000000011111111111111111111111111111111 "
#292
b0 "
#294
b111111111111111111111111111111110000000000000000000000000000000011111111111111111111111111111111 "
#298
b111111111111111111111110101000000000000000000000000000000000000111111111111111111111111111111111 "
#299
b0 "
b111111111111111111 $"
#300
b111111111111111111111111111111110000000000000000000000000000000011111111111111111111111111111111 "
b0 $"
#301
b0 "
#303
b111111111111111111111111111111110000000000000000000000000000000011111111111111111111111111111111 "
#304
b0 "
#306
b111111111111111111111111111111110000000000000000000000000000000011111111111111111111111111111111 "
#310
b111111111111111111111111111110000000000000000000000000000000000011111111111111111111111111111111 "
#311
b0 "
b111111111111111111 $"
#312
b0 $"
#313
b111111111111111111111111111111110000000000000000000000000000000011111111111111111111111111111111 "
#314
b0 "
#316
b111111111111111111111111111111110000000000000000000000000000000011111111111111111111111111111111 "
#317
b0 "
#319
b111111111111111111111111111111110000000000000000000000000000000011111111111111111111111111111111 "
#322
b111111111111111111111111111111100000000000000000000000000000000011111111111111111111111111111111 "
#323
b0 "
b111111111111111111 $"
#324
b0 $"
#325
b111111111111111111111111111111110000000000000000000000000000000011111111111111111111111111111111 "
#326
b0 "
#328
b111111111111111111111111111111110000000000000000000000000000000011111111111111111111111111111111 "
#329
b0 "
#331
b111111111111111111111111111111110000000000000000000000000000000011111111111111111111111111111111 "
#335
b0 "
b111111111111111111 $"
#336
b0 $"
#337
b111111111111111111111111111111110000000000000000000000000000000011111111111111111111111111111111 "
#338
b0 "
#340
b111111111111111111111111111111110000000000000000000000000000000011111111111111111111111111111111 "
#341
b0 "
#343
b111111111111111111111111111111110000000000000000000000000000000011111111111111111111111111111111 "
#347
b0 "
b111111111111111111 $"
#348
b0 $"
#349
b111111111111111111111111111111110000000000000000000000000000000011111111111111111111111111111111 "
#350
b0 "
#352
b111111111111111111111111111111110000000000000000000000000000000011111111111111111111111111111111 "
#353
b0 "
#355
b111111111111111111111111111111110000000000000000000000000000000011111111111111111111111111111111 "
#359
b0 "
b111111111111111111 $"
#360
b0 $"
#361
b111111111111111111111111111111110000000000000000000000000000000011111111111111111111111111111111 "
#362
b0 "
#364
b111111111111111111111111111111110000000000000000000000000000000011111111111111111111111111111111 "
#365
b0 "
#367
b111111111111111111111111111111110000000000000000000000000000000011111111111111111111111111111111 "
#371
b0 "
b111111111111111111 $"
#372
b0 $"
#373
b111111111111111111111111111111110000000000000000000000000000000011111111111111111111111111111111 "
#374
b0 "
#376
b111111111111111111111111111111110000000000000000000000000000000011111111111111111111111111111111 "
#377
b0 "
#379
b111111111111111111111111111111110000000000000000000000000000000011111111111111111111111111111111 "
#383
b0 "
b111111111111111111 $"
#384
b0 $"
#385
b111111111111111111111111111111110000000000000000000000000000000011111111111111111111111111111111 "
#386
b0 "
#388
b111111111111111111111111111111110000000000000000000000000000000011111111111111111111111111111111 "
#389
b0 "
#391
b111111111111111111111111111111110000000000000000000000000000000011111111111111111111111111111111 "
#395
b0 "
b111111111111111111 $"
#396
b0 $"
#397
b111111111111111111111111111111110000000000000000000000000000000011111111111111111111111111111111 "
#398
b0 "
#400
b111111111111111111111111111111110000000000000000000000000000000011111111111111111111111111111111 "
#401
b0 "
#403
b111111111111111111111111111111110000000000000000000000000000000011111111111111111111111111111111 "
#407
b0 "
b111111111111111111 $"
#408
b0 $"
#409
b111111111111111111111111111111110000000000000000000000000000000011111111111111111111111111111111 "
#410
b0 "
#412
b111111111111111111111111111111110000000000000000000000000000000011111111111111111111111111111111 "
#413
b0 "
#415
b111111111111111111111111111111110000000000000000000000000000000011111111111111111111111111111111 "
#419
b0 "
b111111111111111111 $"
#420
b0 $"
#421
b111111111111111111111111111111110000000000000000000000000000000011111111111111111111111111111111 "
#422
b0 "
#424
b111111111111111111111111111111110000000000000000000000000000000011111111111111111111111111111111 "
#425
b0 "
#427
b111111111111111111111111111111110000000000000000000000000000000011111111111111111111111111111111 "
#431
b0 "
b111111111111111111 $"
#432
b0 $"
#433
b111111111111111111111111111111110000000000000000000000000000000011111111111111111111111111111111 "
#434
b0 "
#436
b111111111111111111111111111111110000000000000000000000000000000011111111111111111111111111111111 "
#437
b0 "
#439
b111111111111111111111111111111110000000000000000000000000000000011111111111111111111111111111111 "
#443
b0 "
b111111111111111111 $"
#444
b0 $"
#445
b111111111111111111111111111111110000000000000000000000000000000011111111111111111111111111111111 "
#446
b0 "
#448
b111111111111111111111111111111110000000000000000000000000000000011111111111111111111111111111111 "
#449
b0 "
#451
b111111111111111111111111111111110000000000000000000000000000000011111111111111111111111111111111 "
#455
b0 "
b111111111111111111 $"
#456
b0 $"
#457
b111111111111111111111111111111110000000000000000000000000000000011111111111111111111111111111111 "
#458
b0 "
#460
b111111111111111111111111111111110000000000000000000000000000000011111111111111111111111111111111 "
#461
b0 "
#463
b111111111111111111111111111111110000000000000000000000000000000011111111111111111111111111111111 "
#467
b0 "
b111111111111111111 $"
#468
b0 $"
#469
b111111111111111111111111111111110000000000000000000000000000000011111111111111111111111111111111 "
#470
b0 "
#472
b111111111111111111111111111111110000000000000000000000000000000011111111111111111111111111111111 "
#473
b0 "
#475
b111111111111111111111111111111110000000000000000000000000000000011111111111111111111111111111111 "
#479
b0 "
b111111111111111111 $"
#480
b0 $"
#481
b111111111111111111111111111111110000000000000000000000000000000011111111111111111111111111111111 "
#482
b0 "
#484
b111111111111111111111111111111110000000000000000000000000000000011111111111111111111111111111111 "
#485
b0 "
#487
b111111111111111111111111111111110000000000000000000000000000000011111111111111111111111111111111 "
#491
b0 "
b111111111111111111 $"
#492
b0 $"
#493
b111111111111111111111111111111110000000000000000000000000000000011111111111111111111111111111111 "
#494
b0 "
#496
b111111111111111111111111111111110000000000000000000000000000000011111111111111111111111111111111 "
#497
b0 "
#499
b111111111111111111111111111111110000000000000000000000000000000011111111111111111111111111111111 "
#503
b111111110000000000000000000000000000000000000000000000000000000000000000000000000000000000000000 "
b111111111111111111 $"
#504
b0 "
b0 $"
#505
b111111111111111111111111111111110000000000000000000000000000000011111111111111111111111111111111 "
#506
b0 "
#508
b111111111111111111111111111111110000000000000000000000000000000011111111111111111111111111111111 "
#509
b0 "
#511
b111111111111111111111111111111110000000000000000000000000000000011111111111111111111111111111111 "
#512
16"
#515
b111111111111111110000000000000000000000000000000000000000000000000000000000000000000000000000000 "
b111111111111111111 $"
#516
b0 "
b0 $"
#517
b111111111111111111111111111111110000000000000000000000000000000011111111111111111111111111111111 "
#518
b0 "
#520
b111111111111111111111111111111110000000000000000000000000000000011111111111111111111111111111111 "
#521
b0 "
#523
b111111111111111111111111111111110000000000000000000000000000000011111111111111111111111111111111 "
#527
b111111111111111111111111111000000000000000000000000000000000000000000000000000000000000000000000 "
#528
b0 "
b111111111111111111 $"
#529
b111111111111111111111111111111110000000000000000000000000000000011111111111111111111111111111111 "
b0 $"
#530
b0 "
#532
b111111111111111111111111111111110000000000000000000000000000000011111111111111111111111111111111 "
#533
b0 "
#535
b111111111111111111111111111111110000000000000000000000000000000011111111111111111111111111111111 "
#539
b111111111111111111111111111111111111000000000000000000000000000000000000000000000000000000000000 "
#540
b0 "
b111111111111111111 $"
#541
b111111111111111111111111111111110000000000000000000000000000000011111111111111111111111111111111 "
b0 $"
#542
b0 "
#544
b111111111111111111111111111111110000000000000000000000000000000011111111111111111111111111111111 "
#545
b0 "
#547
b111111111111111111111111111111110000000000000000000000000000000011111111111111111111111111111111 "
#551
b111111111111111111111111111111111111111111110000000000000000000000000000000000000000000000000000 "
#552
b0 "
b111111111111111111 $"
#553
b111111111111111111111111111111110000000000000000000000000000000011111111111111111111111111111111 "
b0 $"
#554
b0 "
#556
b111111111111111111111111111111110000000000000000000000000000000011111111111111111111111111111111 "
#557
b0 "
#559
b111111111111111111111111111111110000000000000000000000000000000011111111111111111111111111111111 "
#563
b1111111111111111111111111111111111111111111000000000000000000000000000000000000000000000 "
b111111111111111111 $"
#564
b0 "
b0 $"
#565
b111111111111111111111111111111110000000000000000000000000000000011111111111111111111111111111111 "
#566
b0 "
#568
b111111111111111111111111111111110000000000000000000000000000000011111111111111111111111111111111 "
#569
b0 "
#571
b111111111111111111111111111111110000000000000000000000000000000011111111111111111111111111111111 "
#575
b111111111111111111111111111111111111111111111100000000000000000000000000000000000 "
b111111111111111111 $"
#576
b0 "
b0 $"
#577
b111111111111111111111111111111110000000000000000000000000000000011111111111111111111111111111111 "
#578
b0 "
#580
b111111111111111111111111111111110000000000000000000000000000000011111111111111111111111111111111 "
#581
b0 "
#583
b111111111111111111111111111111110000000000000000000000000000000011111111111111111111111111111111 "
#587
b1011111111111111111111111111111111111111111111010000000000000000000000000 "
b111111111111111111 $"
#588
b0 "
b0 $"
#589
b111111111111111111111111111111110000000000000000000000000000000011111111111111111111111111111111 "
#590
b0 "
#592
b111111111111111111111111111111110000000000000000000000000000000011111111111111111111111111111111 "
#593
b0 "
#595
b111111111111111111111111111111110000000000000000000000000000000011111111111111111111111111111111 "
#599
b1111111111111111111111111111111111111111111111000000000000000 "
b111111111111111111 $"
#600
b0 "
b0 $"
#601
b111111111111111111111111111111110000000000000000000000000000000011111111111111111111111111111111 "
#602
b0 "
#604
b111111111111111111111111111111110000000000000000000000000000000011111111111111111111111111111111 "
#605
b0 "
#607
b111111111111111111111111111111110000000000000000000000000000000011111111111111111111111111111111 "
#611
b1111111111111111111111111111111111111111111011100000 "
b111111111111111111 $"
#612
b0 "
b0 $"
#613
b111111111111111111111111111111110000000000000000000000000000000011111111111111111111111111111111 "
#614
b0 "
#616
b111111111111111111111111111111110000000000000000000000000000000011111111111111111111111111111111 "
#617
b0 "
#619
b111111111111111111111111111111110000000000000000000000000000000011111111111111111111111111111111 "
#623
b111111110000000000000000000000000000000000000000000001111111111111111111111111111111111111111100 "
b111111111111111111 $"
#624
b0 "
b0 $"
#625
b111111111111111111111111111111110000000000000000000000000000000011111111111111111111111111111111 "
#626
b0 "
#628
b111111111111111111111111111111110000000000000000000000000000000011111111111111111111111111111111 "
#629
b0 "
#631
b111111111111111111111111111111110000000000000000000000000000000011111111111111111111111111111111 "
#635
b111111111111111000000000000000000000000000000000000000000000011111111111111111111111111111111111 "
#636
b0 "
b111111111111111111 $"
#637
b111111111111111111111111111111110000000000000000000000000000000011111111111111111111111111111111 "
b0 $"
#638
b0 "
#640
b111111111111111111111111111111110000000000000000000000000000000011111111111111111111111111111111 "
#641
b0 "
#643
b111111111111111111111111111111110000000000000000000000000000000011111111111111111111111111111111 "
#647
b111111111111111111111111101000000000000000000000000000000000000011111111111111111111111111111111 "
#648
b0 "
b111111111111111111 $"
#649
b111111111111111111111111111111110000000000000000000000000000000011111111111111111111111111111111 "
b0 $"
#650
b0 "
#652
b111111111111111111111111111111110000000000000000000000000000000011111111111111111111111111111111 "
#653
b0 "
#655
b111111111111111111111111111111110000000000000000000000000000000011111111111111111111111111111111 "
#659
b111111111111111111111111111111000000000000000000000000000000000011111111111111111111111111111111 "
#660
b0 "
b111111111111111111 $"
#661
b0 $"
#662
b111111111111111111111111111111110000000000000000000000000000000011111111111111111111111111111111 "
#663
b0 "
#665
b111111111111111111111111111111110000000000000000000000000000000011111111111111111111111111111111 "
#666
b0 "
#668
b111111111111111111111111111111110000000000000000000000000000000011111111111111111111111111111111 "
#672
b0 "
b111111111111111111 $"
#673
b0 $"
#674
b111111111111111111111111111111110000000000000000000000000000000011111111111111111111111111111111 "
#675
b0 "
#677
b111111111111111111111111111111110000000000000000000000000000000011111111111111111111111111111111 "
#678
b0 "
#680
b111111111111111111111111111111110000000000000000000000000000000011111111111111111111111111111111 "
#684
b0 "
b111111111111111111 $"
#685
b0 $"
#686
b111111111111111111111111111111110000000000000000000000000000000011111111111111111111111111111111 "
#687
b0 "
#689
b111111111111111111111111111111110000000000000000000000000000000011111111111111111111111111111111 "
#690
b0 "
#692
b111111111111111111111111111111110000000000000000000000000000000011111111111111111111111111111111 "
#696
b0 "
b111111111111111111 $"
#697
b0 $"
#698
b111111111111111111111111111111110000000000000000000000000000000011111111111111111111111111111111 "
#699
b0 "
#701
b111111111111111111111111111111110000000000000000000000000000000011111111111111111111111111111111 "
#702
b0 "
#704
b111111111111111111111111111111110000000000000000000000000000000011111111111111111111111111111111 "
#708
b0 "
b111111111111111111 $"
#709
b0 $"
#710
b111111111111111111111111111111110000000000000000000000000000000011111111111111111111111111111111 "
#711
b0 "
#713
b111111111111111111111111111111110000000000000000000000000000000011111111111111111111111111111111 "
#714
b0 "
#716
b111111111111111111111111111111110000000000000000000000000000000011111111111111111111111111111111 "
#720
b0 "
b111111111111111111 $"
#721
b0 $"
#722
b111111111111111111111111111111110000000000000000000000000000000011111111111111111111111111111111 "
#723
b0 "
#725
b111111111111111111111111111111110000000000000000000000000000000011111111111111111111111111111111 "
#726
b0 "
#728
b111111111111111111111111111111110000000000000000000000000000000011111111111111111111111111111111 "
#732
b0 "
b111111111111111111 $"
#733
b0 $"
#734
b111111111111111111111111111111110000000000000000000000000000000011111111111111111111111111111111 "
#735
b0 "
#737
b111111111111111111111111111111110000000000000000000000000000000011111111111111111111111111111111 "
#738
b0 "
#740
b111111111111111111111111111111110000000000000000000000000000000011111111111111111111111111111111 "
#744
b0 "
b111111111111111111 $"
#745
b0 $"
#746
b111111111111111111111111111111110000000000000000000000000000000011111111111111111111111111111111 "
#747
b0 "
#749
b111111111111111111111111111111110000000000000000000000000000000011111111111111111111111111111111 "
#750
b0 "
#752
b111111111111111111111111111111110000000000000000000000000000000011111111111111111111111111111111 "
#756
b0 "
b111111111111111111 $"
#757
b0 $"
#758
b111111111111111111111111111111110000000000000000000000000000000011111111111111111111111111111111 "
#759
b0 "
#761
b111111111111111111111111111111110000000000000000000000000000000011111111111111111111111111111111 "
#762
b0 "
#764
b111111111111111111111111111111110000000000000000000000000000000011111111111111111111111111111111 "
#768
b0 "
b111111111111111111 $"
#769
b0 $"
#770
b111111111111111111111111111111110000000000000000000000000000000011111111111111111111111111111111 "
#771
b0 "
#773
b111111111111111111111111111111110000000000000000000000000000000011111111111111111111111111111111 "
#774
b0 "
#776
b111111111111111111111111111111110000000000000000000000000000000011111111111111111111111111111111 "
#780
b0 "
b111111111111111111 $"
#781
b0 $"
#782
b111111111111111111111111111111110000000000000000000000000000000011111111111111111111111111111111 "
#783
b0 "
#785
b111111111111111111111111111111110000000000000000000000000000000011111111111111111111111111111111 "
#786
b0 "
#788
b111111111111111111111111111111110000000000000000000000000000000011111111111111111111111111111111 "
#792
b0 "
b111111111111111111 $"
#793
b0 $"
#794
b111111111111111111111111111111110000000000000000000000000000000011111111111111111111111111111111 "
#795
b0 "
#797
b111111111111111111111111111111110000000000000000000000000000000011111111111111111111111111111111 "
#798
b0 "
#800
b111111111111111111111111111111110000000000000000000000000000000011111111111111111111111111111111 "
#804
b0 "
b111111111111111111 $"
#805
b0 $"
#806
b111111111111111111111111111111110000000000000000000000000000000011111111111111111111111111111111 "
#807
b0 "
#809
b111111111111111111111111111111110000000000000000000000000000000011111111111111111111111111111111 "
#810
b0 "
#812
b111111111111111111111111111111110000000000000000000000000000000011111111111111111111111111111111 "
#816
b0 "
b111111111111111111 $"
#817
b0 $"
#818
b111111111111111111111111111111110000000000000000000000000000000011111111111111111111111111111111 "
#819
b0 "
#821
b111111111111111111111111111111110000000000000000000000000000000011111111111111111111111111111111 "
#822
b0 "
#824
b111111111111111111111111111111110000000000000000000000000000000011111111111111111111111111111111 "
#828
b0 "
b111111111111111111 $"
#829
b0 $"
#830
b111111111111111111111111111111110000000000000000000000000000000011111111111111111111111111111111 "
#831
b0 "
#833
b111111111111111111111111111111110000000000000000000000000000000011111111111111111111111111111111 "
#834
b0 "
#836
b111111111111111111111111111111110000000000000000000000000000000011111111111111111111111111111111 "
#840
b111111110000000000000000000000000000000000000000000000000000000000000000000000000000000000000000 "
b111111111111111111 $"
#841
b0 "
b0 $"
#842
b111111111111111111111111111111110000000000000000000000000000000011111111111111111111111111111111 "
#843
b0 "
#845
b111111111111111111111111111111110000000000000000000000000000000011111111111111111111111111111111 "
#846
b0 "
#848
b111111111111111111111111111111110000000000000000000000000000000011111111111111111111111111111111 "
#852
b111111111111111110000000000000000000000000000000000000000000000000000000000000000000000000000000 "
b111111111111111111 $"
#853
b0 "
b0 $"
#854
b111111111111111111111111111111110000000000000000000000000000000011111111111111111111111111111111 "
#855
b0 "
#857
b111111111111111111111111111111110000000000000000000000000000000011111111111111111111111111111111 "
#858
b0 "
#860
b111111111111111111111111111111110000000000000000000000000000000011111111111111111111111111111111 "
#864
b111111111111111111111110100000000000000000000000000000000000000000000000000000000000000000000000 "
b111111111111111111 $"
#865
b0 "
b0 $"
#866
b111111111111111111111111111111110000000000000000000000000000000011111111111111111111111111111111 "
#867
b0 "
#869
b111111111111111111111111111111110000000000000000000000000000000011111111111111111111111111111111 "
#870
b0 "
#872
b111111111111111111111111111111110000000000000000000000000000000011111111111111111111111111111111 "
#876
b111111111111111111111111111111111110000000000000000000000000000000000000000000000000000000000000 "
#877
b0 "
b111111111111111111 $"
#878
b111111111111111111111111111111110000000000000000000000000000000011111111111111111111111111111111 "
b0 $"
#879
b0 "
#881
b111111111111111111111111111111110000000000000000000000000000000011111111111111111111111111111111 "
#882
b0 "
#884
b111111111111111111111111111111110000000000000000000000000000000011111111111111111111111111111111 "
#888
b111111111111111111111111111111111111111111110000000000000000000000000000000000000000000000000000 "
#889
b0 "
b111111111111111111 $"
#890
b111111111111111111111111111111110000000000000000000000000000000011111111111111111111111111111111 "
b0 $"
#891
b0 "
#893
b111111111111111111111111111111110000000000000000000000000000000011111111111111111111111111111111 "
#894
b0 "
#896
b111111111111111111111111111111110000000000000000000000000000000011111111111111111111111111111111 "
#900
b100011111111111111111111111111111111111111111111000000000000000000000000000000000000000000000 "
b111111111111111111 $"
#901
b0 "
b0 $"
#902
b111111111111111111111111111111110000000000000000000000000000000011111111111111111111111111111111 "
#903
b0 "
#905
b111111111111111111111111111111110000000000000000000000000000000011111111111111111111111111111111 "
#906
b0 "
#908
b111111111111111111111111111111110000000000000000000000000000000011111111111111111111111111111111 "
#912
b111111111111111111111111111111111111111111111100000000000000000000000000000000000 "
b111111111111111111 $"
#913
b0 "
b0 $"
#914
b111111111111111111111111111111110000000000000000000000000000000011111111111111111111111111111111 "
#915
b0 "
#917
b111111111111111111111111111111110000000000000000000000000000000011111111111111111111111111111111 "
#918
b0 "
#920
b111111111111111111111111111111110000000000000000000000000000000011111111111111111111111111111111 "
#924
b111111111111111111111111111111111111111111111110000000000000000000000000000 "
b111111111111111111 $"
#925
b0 "
b0 $"
#926
b111111111111111111111111111111110000000000000000000000000000000011111111111111111111111111111111 "
#927
b0 "
#929
b111111111111111111111111111111110000000000000000000000000000000011111111111111111111111111111111 "
#930
b0 "
#932
b111111111111111111111111111111110000000000000000000000000000000011111111111111111111111111111111 "
#936
b111111111111111111111111111111111111111111111100000000000000000 "
b111111111111111111 $"
#937
b0 "
b0 $"
#938
b111111111111111111111111111111110000000000000000000000000000000011111111111111111111111111111111 "
#939
b0 "
#941
b111111111111111111111111111111110000000000000000000000000000000011111111111111111111111111111111 "
#942
b0 "
#944
b111111111111111111111111111111110000000000000000000000000000000011111111111111111111111111111111 "
#948
b1111111111111111111111111111111111111111111111100000 "
b111111111111111111 $"
#949
b0 "
b0 $"
#950
b111111111111111111111111111111110000000000000000000000000000000011111111111111111111111111111111 "
#951
b0 "
#953
b111111111111111111111111111111110000000000000000000000000000000011111111111111111111111111111111 "
#954
b0 "
#956
b111111111111111111111111111111110000000000000000000000000000000011111111111111111111111111111111 "
#960
b111111100000000000000000000000000000000000000000000111111111111111111111111111111111111111111100 "
b111111111111111111 $"
#961
b0 "
b0 $"
#962
b111111111111111111111111111111110000000000000000000000000000000011111111111111111111111111111111 "
#963
b0 "
#965
b111111111111111111111111111111110000000000000000000000000000000011111111111111111111111111111111 "
#966
b0 "
#968
b111111111111111111111111111111110000000000000000000000000000000011111111111111111111111111111111 "
#972
b111111111111100000000000000000000000000000000000000000000000111111111111111111111111111111111111 "
#973
b0 "
b111111111111111111 $"
#974
b111111111111111111111111111111110000000000000000000000000000000011111111111111111111111111111111 "
b0 $"
#975
b0 "
#977
b111111111111111111111111111111110000000000000000000000000000000011111111111111111111111111111111 "
#978
b0 "
#980
b111111111111111111111111111111110000000000000000000000000000000011111111111111111111111111111111 "
#984
b111111111111111111110000000000000000000000000000000000000000001111111111111111111111111111111111 "
#985
b0 "
b111111111111111111 $"
